{
    "name": "r",
    "left": {
        "name": "r",
        "left": {
            "name": "r",
            "left": {
                "name": "a",
                "left": null,
                "right": null
            },
            "right": {
                "name": "a",
                "left": null,
                "right": null
            }
        },
        "right": {
            "name": "a",
            "left": null,
            "right": null
        }
    },
    "right": {
        "name": "r",
        "left": {
            "name": "r0",
            "left": {
                "name": "r",
                "left": {
                    "name": "a",
                    "left": null,
                    "right": null
                },
                "right": {
                    "name": "a0",
                    "left": null,
                    "right": null
                }
            },
            "right": {
                "name": "r",
                "left": {
                    "name": "r1",
                    "left": {
                        "name": "r",
                        "left": {
                            "name": "a",
                            "left": null,
                            "right": null
                        },
                        "right": {
                            "name": "a1",
                            "left": null,
                            "right": null
                        }
                    },
                    "right": {
                        "name": "r",
                        "left": {
                            "name": "a",
                            "left": null,
                            "right": null
                        },
                        "right": {
                            "name": "a2",
                            "left": null,
                            "right": null
                        }
                    }
                },
                "right": {
                    "name": "a",
                    "left": null,
                    "right": null
                }
            }
        },
        "right": {
            "name": "a",
            "left": null,
            "right": null
        }
    }
}